<?xml version="1.0" encoding="UTF-8" standalone="no"?>
<svg
   xmlns:dc="http://purl.org/dc/elements/1.1/"
   xmlns:cc="http://creativecommons.org/ns#"
   xmlns:rdf="http://www.w3.org/1999/02/22-rdf-syntax-ns#"
   xmlns:svg="http://www.w3.org/2000/svg"
   xmlns="http://www.w3.org/2000/svg"
   xmlns:xlink="http://www.w3.org/1999/xlink"
   id="svg5806"
   height="366.14267"
   width="817.55493"
   version="1.0">
  <defs
     id="defs5808" />
  <metadata
     id="metadata5811">
    <rdf:RDF>
      <cc:Work
         rdf:about="">
        <dc:format>image/svg+xml</dc:format>
        <dc:type
           rdf:resource="http://purl.org/dc/dcmitype/StillImage" />
        <dc:title></dc:title>
      </cc:Work>
    </rdf:RDF>
  </metadata>
  <g
     transform="translate(313.8636,-325.1111)"
     id="g406">
    <g
       id="g242"
       transform="translate(-344.68459,338)">
      <path
         d="m 139.18216,279.91035 h 26.37908 l 5.17496,14.59603 h 70.89029 v 16.08881 h -67.3408 c 0,0 -3.28456,3.74717 -6.23649,6.03746 -0.96201,0.74639 -1.99037,1.99036 -6.36918,1.99036 -4.37881,0 -14.23783,0 -18.61664,0 -4.37881,0 -5.40717,-1.24397 -6.36918,-1.99036 -2.95193,-2.29029 -6.23649,-6.03746 -6.23649,-6.03746 h -67.3408 v -16.08881 h 70.89029 z"
         id="path3039"
         style="fill:#de9261;fill-opacity:1;stroke:#000000;stroke-width:1.06298995;stroke-linecap:round;stroke-linejoin:round;stroke-miterlimit:4;stroke-dasharray:none;stroke-dashoffset:0;stroke-opacity:1" />
      <g
         transform="translate(-53.3571,-25.719)"
         id="use2947"
         style="stroke:#525252;stroke-opacity:1">
        <rect
           width="32.577419"
           height="88.640884"
           rx="11.248803"
           ry="11.248803"
           x="294.58572"
           y="289.06567"
           transform="matrix(0.968992,0,0,1.11681,9.38698,-43.6145)"
           id="rect2535"
           style="fill:#aaaaaa;fill-opacity:1;stroke:#525252;stroke-width:1.36245;stroke-linecap:butt;stroke-linejoin:round;stroke-miterlimit:0;stroke-dasharray:none;stroke-dashoffset:0;stroke-opacity:1" />
        <g
           transform="translate(-0.0508569,-0.12631)"
           id="g2537"
           style="stroke:#525252;stroke-opacity:1">
          <path
             d="m 315.04133,279.46922 v 98.74241"
             id="path2539"
             style="fill:none;stroke:#525252;stroke-width:1.41732001;stroke-linecap:butt;stroke-linejoin:round;stroke-miterlimit:0;stroke-dasharray:none;stroke-dashoffset:0;stroke-opacity:1" />
          <use
             transform="translate(-8.73731)"
             id="use2541"
             style="stroke:#525252;stroke-opacity:1"
             x="0"
             y="0"
             width="744.09448"
             height="1052.3622"
             xlink:href="#path6744" />
        </g>
        <g
           id="g2543"
           style="stroke:#525252;stroke-width:1.41732001;stroke-miterlimit:4;stroke-dasharray:none;stroke-opacity:1">
          <path
             d="m 319.53125,280.09375 -1.84375,2.0625 3,3.3125 -3,3.3125 3,3.34375 -3,3.3125 3,3.3125 -3,3.34375 3,3.3125 -3,3.3125 3,3.34375 -3,3.3125 3,3.3125 -3,3.34375 3,3.3125 -3,3.3125 3,3.3125 -3,3.34375 3,3.3125 -3,3.3125 3,3.34375 -3,3.3125 3,3.3125 -3,3.34375 3,3.3125 -3,3.3125 3,3.34375 -3,3.3125 3,3.3125 -3,3.3125 1.90625,2.125"
             id="path2545"
             style="fill:none;stroke:#525252;stroke-width:1.41732001;stroke-linecap:round;stroke-linejoin:round;stroke-miterlimit:4;stroke-dasharray:none;stroke-dashoffset:0;stroke-opacity:1" />
          <path
             d="m 302.4375,279.8125 -2.125,2.34375 3,3.3125 -3,3.3125 3,3.34375 -3,3.3125 3,3.3125 -3,3.34375 3,3.3125 -3,3.3125 3,3.34375 -3,3.3125 3,3.3125 -3,3.34375 3,3.3125 -3,3.3125 3,3.3125 -3,3.34375 3,3.3125 -3,3.3125 3,3.34375 -3,3.3125 3,3.3125 -3,3.34375 3,3.3125 -3,3.3125 3,3.34375 -3,3.3125 3,3.3125 -3,3.3125 2.25,2.53125"
             id="path2547"
             style="fill:none;stroke:#525252;stroke-width:1.41732001;stroke-linecap:round;stroke-linejoin:round;stroke-miterlimit:4;stroke-dasharray:none;stroke-dashoffset:0;stroke-opacity:1" />
          <path
             d="m 310.34375,279.21875 -2.65625,2.9375 3,3.3125 -3,3.3125 3,3.34375 -3,3.3125 3,3.3125 -3,3.34375 3,3.3125 -3,3.3125 3,3.34375 -3,3.3125 3,3.3125 -3,3.34375 3,3.3125 -3,3.3125 3,3.3125 -3,3.34375 3,3.3125 -3,3.3125 3,3.34375 -3,3.3125 3,3.3125 -3,3.34375 3,3.3125 -3,3.3125 3,3.34375 -3,3.3125 3,3.3125 -3,3.3125 2.75,3.0625"
             transform="translate(1.3125)"
             id="path2549"
             style="fill:none;stroke:#525252;stroke-width:1.41732001;stroke-linecap:round;stroke-linejoin:round;stroke-miterlimit:4;stroke-dasharray:none;stroke-dashoffset:0;stroke-opacity:1" />
        </g>
      </g>
      <g
         transform="translate(-263.3571,-25.719)"
         id="use2949"
         style="stroke:#525252;stroke-opacity:1">
        <rect
           width="32.577419"
           height="88.640884"
           rx="11.248803"
           ry="11.248803"
           x="294.58572"
           y="289.06567"
           transform="matrix(0.968992,0,0,1.11681,9.38698,-43.6145)"
           id="rect2553"
           style="fill:#aaaaaa;fill-opacity:1;stroke:#525252;stroke-width:1.36245;stroke-linecap:butt;stroke-linejoin:round;stroke-miterlimit:0;stroke-dasharray:none;stroke-dashoffset:0;stroke-opacity:1" />
        <g
           transform="translate(-0.0508569,-0.12631)"
           id="g2555"
           style="stroke:#525252;stroke-opacity:1">
          <path
             d="m 315.04133,279.46922 v 98.74241"
             id="path2557"
             style="fill:none;stroke:#525252;stroke-width:1.41732001;stroke-linecap:butt;stroke-linejoin:round;stroke-miterlimit:0;stroke-dasharray:none;stroke-dashoffset:0;stroke-opacity:1" />
          <use
             transform="translate(-8.73731)"
             id="use2559"
             style="stroke:#525252;stroke-opacity:1"
             x="0"
             y="0"
             width="744.09448"
             height="1052.3622"
             xlink:href="#path6744" />
        </g>
        <g
           id="g2561"
           style="stroke:#525252;stroke-width:1.41732001;stroke-miterlimit:4;stroke-dasharray:none;stroke-opacity:1">
          <path
             d="m 319.53125,280.09375 -1.84375,2.0625 3,3.3125 -3,3.3125 3,3.34375 -3,3.3125 3,3.3125 -3,3.34375 3,3.3125 -3,3.3125 3,3.34375 -3,3.3125 3,3.3125 -3,3.34375 3,3.3125 -3,3.3125 3,3.3125 -3,3.34375 3,3.3125 -3,3.3125 3,3.34375 -3,3.3125 3,3.3125 -3,3.34375 3,3.3125 -3,3.3125 3,3.34375 -3,3.3125 3,3.3125 -3,3.3125 1.90625,2.125"
             id="path2563"
             style="fill:none;stroke:#525252;stroke-width:1.41732001;stroke-linecap:round;stroke-linejoin:round;stroke-miterlimit:4;stroke-dasharray:none;stroke-dashoffset:0;stroke-opacity:1" />
          <path
             d="m 302.4375,279.8125 -2.125,2.34375 3,3.3125 -3,3.3125 3,3.34375 -3,3.3125 3,3.3125 -3,3.34375 3,3.3125 -3,3.3125 3,3.34375 -3,3.3125 3,3.3125 -3,3.34375 3,3.3125 -3,3.3125 3,3.3125 -3,3.34375 3,3.3125 -3,3.3125 3,3.34375 -3,3.3125 3,3.3125 -3,3.34375 3,3.3125 -3,3.3125 3,3.34375 -3,3.3125 3,3.3125 -3,3.3125 2.25,2.53125"
             id="path2565"
             style="fill:none;stroke:#525252;stroke-width:1.41732001;stroke-linecap:round;stroke-linejoin:round;stroke-miterlimit:4;stroke-dasharray:none;stroke-dashoffset:0;stroke-opacity:1" />
          <path
             d="m 310.34375,279.21875 -2.65625,2.9375 3,3.3125 -3,3.3125 3,3.34375 -3,3.3125 3,3.3125 -3,3.34375 3,3.3125 -3,3.3125 3,3.34375 -3,3.3125 3,3.3125 -3,3.34375 3,3.3125 -3,3.3125 3,3.3125 -3,3.34375 3,3.3125 -3,3.3125 3,3.34375 -3,3.3125 3,3.3125 -3,3.34375 3,3.3125 -3,3.3125 3,3.34375 -3,3.3125 3,3.3125 -3,3.3125 2.75,3.0625"
             transform="translate(1.3125)"
             id="path2567"
             style="fill:none;stroke:#525252;stroke-width:1.41732001;stroke-linecap:round;stroke-linejoin:round;stroke-miterlimit:4;stroke-dasharray:none;stroke-dashoffset:0;stroke-opacity:1" />
        </g>
      </g>
      <g
         transform="translate(-59.3571,-255.719)"
         id="g3177">
        <use
           transform="translate(-210)"
           id="use2945"
           x="0"
           y="0"
           width="744.09448"
           height="1052.3622"
           xlink:href="#g2935" />
        <g
           transform="translate(6)"
           id="g2935"
           style="stroke:#525252;stroke-opacity:1">
          <rect
             width="32.577419"
             height="88.640884"
             rx="11.248803"
             ry="11.248803"
             x="294.58572"
             y="289.06567"
             transform="matrix(0.968992,0,0,1.11681,9.38698,-43.6145)"
             id="rect5857"
             style="fill:#aaaaaa;fill-opacity:1;stroke:#525252;stroke-width:1.36245;stroke-linecap:butt;stroke-linejoin:round;stroke-miterlimit:0;stroke-dasharray:none;stroke-dashoffset:0;stroke-opacity:1" />
          <g
             transform="translate(-0.0508569,-0.12631)"
             id="g6748"
             style="stroke:#525252;stroke-opacity:1">
            <path
               d="m 315.04133,279.46922 v 98.74241"
               id="path6744"
               style="fill:none;stroke:#525252;stroke-width:1.41732001;stroke-linecap:butt;stroke-linejoin:round;stroke-miterlimit:0;stroke-dasharray:none;stroke-dashoffset:0;stroke-opacity:1" />
            <use
               transform="translate(-8.73731)"
               id="use6746"
               style="stroke:#525252;stroke-opacity:1"
               x="0"
               y="0"
               width="744.09448"
               height="1052.3622"
               xlink:href="#path6744" />
          </g>
          <g
             id="g2930"
             style="stroke:#525252;stroke-width:1.41732001;stroke-miterlimit:4;stroke-dasharray:none;stroke-opacity:1">
            <path
               d="m 319.53125,280.09375 -1.84375,2.0625 3,3.3125 -3,3.3125 3,3.34375 -3,3.3125 3,3.3125 -3,3.34375 3,3.3125 -3,3.3125 3,3.34375 -3,3.3125 3,3.3125 -3,3.34375 3,3.3125 -3,3.3125 3,3.3125 -3,3.34375 3,3.3125 -3,3.3125 3,3.34375 -3,3.3125 3,3.3125 -3,3.34375 3,3.3125 -3,3.3125 3,3.34375 -3,3.3125 3,3.3125 -3,3.3125 1.90625,2.125"
               id="path2909"
               style="fill:none;stroke:#525252;stroke-width:1.41732001;stroke-linecap:round;stroke-linejoin:round;stroke-miterlimit:4;stroke-dasharray:none;stroke-dashoffset:0;stroke-opacity:1" />
            <path
               d="m 302.4375,279.8125 -2.125,2.34375 3,3.3125 -3,3.3125 3,3.34375 -3,3.3125 3,3.3125 -3,3.34375 3,3.3125 -3,3.3125 3,3.34375 -3,3.3125 3,3.3125 -3,3.34375 3,3.3125 -3,3.3125 3,3.3125 -3,3.34375 3,3.3125 -3,3.3125 3,3.34375 -3,3.3125 3,3.3125 -3,3.34375 3,3.3125 -3,3.3125 3,3.34375 -3,3.3125 3,3.3125 -3,3.3125 2.25,2.53125"
               id="path2914"
               style="fill:none;stroke:#525252;stroke-width:1.41732001;stroke-linecap:round;stroke-linejoin:round;stroke-miterlimit:4;stroke-dasharray:none;stroke-dashoffset:0;stroke-opacity:1" />
            <path
               d="m 310.34375,279.21875 -2.65625,2.9375 3,3.3125 -3,3.3125 3,3.34375 -3,3.3125 3,3.3125 -3,3.34375 3,3.3125 -3,3.3125 3,3.34375 -3,3.3125 3,3.3125 -3,3.34375 3,3.3125 -3,3.3125 3,3.3125 -3,3.34375 3,3.3125 -3,3.3125 3,3.34375 -3,3.3125 3,3.3125 -3,3.34375 3,3.3125 -3,3.3125 3,3.34375 -3,3.3125 3,3.3125 -3,3.3125 2.75,3.0625"
               transform="translate(1.3125)"
               id="path2919"
               style="fill:none;stroke:#525252;stroke-width:1.41732001;stroke-linecap:round;stroke-linejoin:round;stroke-miterlimit:4;stroke-dasharray:none;stroke-dashoffset:0;stroke-opacity:1" />
          </g>
        </g>
      </g>
      <g
         transform="translate(-59.442832,-217.719)"
         id="g3121"
         style="fill:#a86b3e;fill-opacity:1;stroke:#000000;stroke-width:1.06298995;stroke-miterlimit:4;stroke-dasharray:none;stroke-opacity:1">
        <path
           d="m 122.39715,320.18422 c 0,0 6.75553,0 12.5728,0 5.41628,0 10.14497,17.23869 11.88664,22.58882 1.48196,4.55235 3.80107,13.42088 4.57997,16.39625 0.75782,2.89485 0.91606,5.45478 -1.12592,8.0691 -1.0058,1.28771 -5.53579,2.72098 -8.53824,0.18766 -3.65657,-3.08522 -12.29132,-33.21471 -15.48144,-33.21471 -3.19011,0 -3.75307,0 -3.75307,0 z"
           transform="translate(0,-38)"
           id="path3105"
           style="fill:#a86b3e;fill-opacity:1;stroke:#000000;stroke-width:1.06298995;stroke-linecap:round;stroke-linejoin:round;stroke-miterlimit:4;stroke-dasharray:none;stroke-dashoffset:0;stroke-opacity:1" />
        <use
           transform="matrix(-1,0,0,1,423.415,0)"
           id="use3119"
           style="fill:#a86b3e;fill-opacity:1;stroke:#000000;stroke-width:1.06298995;stroke-miterlimit:4;stroke-dasharray:none;stroke-opacity:1"
           x="0"
           y="0"
           width="744.09448"
           height="1052.3622"
           xlink:href="#path3105" />
      </g>
      <rect
         width="168.88837"
         height="12.948108"
         rx="5.0999985"
         ry="5.0999999"
         x="67.818077"
         y="66.43557"
         id="rect3100"
         style="fill:#de9261;fill-opacity:1;stroke:#000000;stroke-width:1.06299007;stroke-linecap:round;stroke-linejoin:round;stroke-miterlimit:4;stroke-dasharray:none;stroke-dashoffset:0;stroke-opacity:1" />
      <path
         d="m 79.76841,72.90963 a 4.50369,4.50369 0 1 1 -9.00738,0 4.50369,4.50369 0 1 1 9.00738,0 z"
         id="path3113"
         style="fill:#f6cd3d;fill-opacity:1;stroke:#000000;stroke-width:0.70866102;stroke-linecap:round;stroke-linejoin:round;stroke-miterlimit:4;stroke-dasharray:none;stroke-dashoffset:0;stroke-opacity:1" />
      <path
         d="m 233.76841,72.90963 a 4.50369,4.50369 0 1 1 -9.00738,0 4.50369,4.50369 0 1 1 9.00738,0 z"
         id="use3115"
         style="fill:#f6cd3d;fill-opacity:1;stroke:#000000;stroke-width:0.70866102;stroke-linecap:round;stroke-linejoin:round;stroke-miterlimit:4;stroke-dasharray:none;stroke-dashoffset:0;stroke-opacity:1" />
      <path
         d="m 213.61557,108.93725 c 0,0 -122.701707,0 -122.701707,0 -0.83508,1.70195 -2.57604,2.87501 -4.59375,2.875 -2.82269,0 -5.09376,-2.30231 -5.09375,-5.125 0,-2.82269 2.27106,-5.12501 5.09375,-5.125 2.01771,0 3.75868,1.17305 4.59375,2.875 0,0 122.701707,0 122.701707,0 0.83507,-1.70195 2.57604,-2.875 4.59375,-2.875 2.82269,-1e-5 5.09375,2.30231 5.09375,5.125 1e-5,2.82269 -2.27106,5.125 -5.09375,5.125 -2.01771,10e-6 -3.75867,-1.17305 -4.59375,-2.875 z m 4.59375,-4.75 c 1.3725,0 2.46875,1.1275 2.46875,2.5 -1e-5,1.37249 -1.09625,2.5 -2.46875,2.5 -1.3725,10e-6 -2.5,-1.1275 -2.5,-2.5 1e-5,-1.37251 1.1275,-2.5 2.5,-2.5 z m -131.889207,0 c -1.3725,0 -2.46875,1.1275 -2.46875,2.5 10e-6,1.37249 1.09625,2.5 2.46875,2.5 1.3725,10e-6 2.5,-1.1275 2.5,-2.5 -1e-5,-1.37251 -1.1275,-2.5 -2.5,-2.5 z"
         id="path3129"
         style="fill:#f6cd3d;fill-opacity:1;fill-rule:evenodd;stroke:#000000;stroke-width:0.70866102;stroke-linecap:round;stroke-linejoin:miter;stroke-miterlimit:4;stroke-dasharray:none;stroke-dashoffset:0;stroke-opacity:1" />
      <path
         d="M 229.39789,72.7689 152.05967,303.72374 75.09675,72.7689"
         id="path3170"
         style="fill:none;stroke:#d62929;stroke-width:1.07225001;stroke-linecap:butt;stroke-linejoin:miter;stroke-miterlimit:4;stroke-dasharray:6.43349, 6.43349;stroke-dashoffset:0;stroke-opacity:1" />
    </g>
    <g
       id="g304">
      <g
         transform="translate(-59.3571,-255.719)"
         id="g4607">
        <path
           d="m 517.1696,780.9065 1.59375,6.21875 1.0625,-0.25 -1.625,-6.21875 z m 3.125,12.46875 0.40625,1.625 1.03125,4.65625 1.03125,-0.25 -1.03125,-4.65625 -0.40625,-1.625 z m 2.78125,12.5625 0.65625,3.21875 v 0.0313 l 0.59375,3.03125 1.0625,-0.1875 -0.59375,-3.0625 -0.6875,-3.25 z m 2.40625,12.59375 0.84375,4.90625 0.21875,1.4375 1.0625,-0.15625 -0.21875,-1.46875 -0.84375,-4.875 z m 2.0625,12.6875 0.875,6.375 1.0625,-0.15625 -0.875,-6.34375 z m 1.6875,12.75 0.0937,1 0.59375,5.40625 1.0625,-0.125 -0.5625,-5.40625 -0.125,-1 z m 1.28125,12.78125 0.25,2.625 0.28125,3.78125 1.0625,-0.0625 -0.28125,-3.78125 v -0.0313 l -0.25,-2.625 z m 0.9375,12.8125 0.25,4.28125 0.0937,2.15625 1.0625,-0.0625 -0.0937,-2.125 v -0.0313 l -0.21875,-4.28125 z m 0.59375,12.84375 0.125,5.9375 v 0.5 l 1.09375,-0.0313 v -0.46875 l -0.15625,-5.96875 z m 0.1875,12.875 v 0.34375 l 1.09375,-0.0313 -0.0313,-0.34375 z"
           id="path3084"
           style="color:#000000;font-style:normal;font-variant:normal;font-weight:normal;font-stretch:normal;font-size:medium;line-height:normal;font-family:Sans;-inkscape-font-specification:Sans;text-indent:0;text-align:start;text-decoration:none;text-decoration-line:none;letter-spacing:normal;word-spacing:normal;text-transform:none;writing-mode:lr-tb;direction:ltr;baseline-shift:baseline;text-anchor:start;display:inline;overflow:visible;visibility:visible;fill:#808000;fill-opacity:1;stroke:none;stroke-width:1.07225001;marker:none;enable-background:accumulate" />
        <path
           d="m 516.04982,793.07825 1.2484,-13.6736 7.90741,11.22492 c -3.23471,-1.26602 -6.92954,-0.26558 -9.15581,2.44868 z"
           id="path4613"
           style="color:#000000;display:inline;overflow:visible;visibility:visible;fill:#808000;fill-opacity:1;fill-rule:evenodd;stroke-width:0.625;stroke-linecap:butt;stroke-linejoin:round;stroke-miterlimit:4;stroke-dasharray:none;stroke-dashoffset:0;stroke-opacity:1;marker:none;enable-background:accumulate" />
      </g>
      <g
         transform="translate(-59.3571,-255.719)"
         id="g4615">
        <path
           d="m 299.57585,795.06275 2.6875,5.84375 0.96875,-0.46875 -2.6875,-5.84375 z m 5.1875,11.75 0.0313,0.0313 2.34375,5.9375 1,-0.40625 -2.34375,-5.9375 -0.0313,-0.0625 z m 4.5625,12 0.0313,0.0625 2,6.03125 1,-0.34375 -2,-6.03125 -0.0313,-0.0937 z m 3.875,12.21875 0.0313,0.0937 1.65625,6.09375 1.03125,-0.28125 -1.65625,-6.09375 -0.0313,-0.125 z m 3.1875,12.4375 0.0313,0.0937 1.34375,6.1875 1.03125,-0.21875 -1.3125,-6.1875 v -0.0313 l -0.0313,-0.0937 z m 2.53125,12.59375 0.0313,0.0937 0.96875,6.25 1.0625,-0.1875 -1,-6.25 v -0.0937 z m 1.8125,12.6875 0.0313,0.125 0.625,6.28125 1.0625,-0.125 -0.625,-6.28125 -0.0313,-0.125 z m 1.125,12.8125 0.0313,0.125 v 0.0313 l 0.28125,6.25 1.0625,-0.0625 -0.28125,-6.28125 -0.0313,-0.15625 z m 0.4375,13.03125 1.0625,-0.0313 v -0.1875 h -1.0625 z"
           id="path3082"
           style="color:#000000;font-style:normal;font-variant:normal;font-weight:normal;font-stretch:normal;font-size:medium;line-height:normal;font-family:Sans;-inkscape-font-specification:Sans;text-indent:0;text-align:start;text-decoration:none;text-decoration-line:none;letter-spacing:normal;word-spacing:normal;text-transform:none;writing-mode:lr-tb;direction:ltr;baseline-shift:baseline;text-anchor:start;display:inline;overflow:visible;visibility:visible;fill:#808000;fill-opacity:1;stroke:none;stroke-width:1.07225001;marker:none;enable-background:accumulate" />
        <path
           d="m 300.69335,807.21892 -1.25943,-13.67259 9.81715,9.59945 c -3.41102,-0.65656 -6.86226,0.99923 -8.55772,4.07314 z"
           id="path4621"
           style="color:#000000;display:inline;overflow:visible;visibility:visible;fill:#808000;fill-opacity:1;fill-rule:evenodd;stroke-width:0.625;stroke-linecap:butt;stroke-linejoin:round;stroke-miterlimit:4;stroke-dasharray:none;stroke-dashoffset:0;stroke-opacity:1;marker:none;enable-background:accumulate" />
      </g>
      <g
         transform="translate(-59.3571,-255.719)"
         id="g4623">
        <path
           d="m 248.4821,616.9065 5.53125,3.25 0.5625,-0.90625 -5.5625,-3.28125 z m 11,6.625 0.4375,0.28125 h 0.0313 l 4.9375,3.1875 0.59375,-0.90625 -4.96875,-3.1875 -0.46875,-0.28125 z m 10.75,7.0625 0.84375,0.5625 4.40625,3.125 0.625,-0.875 -4.40625,-3.125 h -0.0313 l -0.84375,-0.59375 z m 10.4375,7.46875 1.21875,0.90625 3.875,3 0.65625,-0.84375 -3.875,-3 -1.25,-0.90625 z m 10.125,7.90625 1.5625,1.25 h 0.0313 l 3.34375,2.84375 0.6875,-0.8125 -3.375,-2.84375 -1.5625,-1.28125 z m 9.8125,8.28125 1.875,1.65625 h 0.0313 l 2.875,2.625 0.71875,-0.78125 -2.90625,-2.65625 -1.875,-1.65625 z m 9.46875,8.6875 2.1875,2.0625 2.40625,2.40625 0.78125,-0.78125 -2.4375,-2.40625 -2.1875,-2.0625 z m 9.125,9.03125 2.4375,2.53125 1.96875,2.125 0.8125,-0.71875 -2,-2.15625 -2.4375,-2.53125 z m 8.75,9.40625 2.6875,3.03125 0.8125,-0.71875 -2.6875,-3.03125 z"
           id="path3078"
           style="color:#000000;font-style:normal;font-variant:normal;font-weight:normal;font-stretch:normal;font-size:medium;line-height:normal;font-family:Sans;-inkscape-font-specification:Sans;text-indent:0;text-align:start;text-decoration:none;text-decoration-line:none;letter-spacing:normal;word-spacing:normal;text-transform:none;writing-mode:lr-tb;direction:ltr;baseline-shift:baseline;text-anchor:start;display:inline;overflow:visible;visibility:visible;fill:#808000;fill-opacity:1;stroke:none;stroke-width:1.07225001;marker:none;enable-background:accumulate" />
        <path
           d="m 256.32045,626.27261 -8.81186,-10.52982 13.53433,2.31256 c -3.17907,1.39989 -5.07611,4.72463 -4.72247,8.21726 z"
           id="path4629"
           style="fill:#808000;fill-rule:evenodd;stroke-width:0.625;stroke-linejoin:round" />
      </g>
      <path
         d="m 355.18216,617.91035 h 26.37908 l 5.17496,14.59603 h 70.89029 v 16.08881 h -67.3408 c 0,0 -3.28456,3.74717 -6.23649,6.03746 -0.96201,0.74639 -1.99037,1.99036 -6.36918,1.99036 -4.37881,0 -14.23783,0 -18.61664,0 -4.37881,0 -5.40717,-1.24397 -6.36918,-1.99036 -2.95193,-2.29029 -6.23649,-6.03746 -6.23649,-6.03746 h -67.3408 v -16.08881 h 70.89029 z"
         id="path3356"
         style="fill:#de9261;fill-opacity:1;stroke:#000000;stroke-width:1.06298995;stroke-linecap:round;stroke-linejoin:round;stroke-miterlimit:4;stroke-dasharray:none;stroke-dashoffset:0;stroke-opacity:1" />
      <path
         d="m 40.53778,640.33036 a 11.930761,11.795955 0 1 1 -23.861518,0 11.930761,11.795955 0 1 1 23.861518,0 z"
         id="path3033"
         style="fill:#f6cd3d;fill-opacity:1;stroke:#000000;stroke-width:1.4173243;stroke-linecap:round;stroke-linejoin:round;stroke-miterlimit:4;stroke-dasharray:none;stroke-dashoffset:0;stroke-opacity:1" />
      <text
         x="36.916634"
         y="672.11145"
         id="text3035"
         xml:space="preserve"
         style="font-size:15px;font-family:'Times New Roman'"><tspan
           x="36.916634"
           y="672.11145"
           id="tspan3037"
           style="font-style:normal;font-variant:normal;font-weight:normal;font-stretch:normal;font-size:26px;font-family:'DejaVu Sans';-inkscape-font-specification:'DejaVu Sans'">M</tspan></text>
      <path
         d="m 275.78543,412.1858 c 0,0 5.23304,-4.27229 9.73928,-7.95122 4.19562,-3.42533 18.76059,6.9378 23.49324,9.98072 4.02694,2.58918 11.43197,7.99238 13.917,9.80461 2.41777,1.76318 4.15928,3.64611 4.23084,6.96262 0.0352,1.63358 -2.56741,5.60866 -6.49531,5.54506 -4.78363,-0.0774 -30.52667,-17.95593 -32.99784,-15.93846 -2.47116,2.01747 -2.90724,2.3735 -2.90724,2.3735 z"
         id="path3296"
         style="fill:#a86b3e;fill-opacity:1;stroke:#000000;stroke-width:1.06298995;stroke-linecap:round;stroke-linejoin:round;stroke-miterlimit:4;stroke-dasharray:none;stroke-dashoffset:0;stroke-opacity:1" />
      <g
         transform="translate(-49.74206,-237.30182)"
         id="g4631">
        <path
           d="m 465.6696,563.81275 4.21875,4.875 0.8125,-0.71875 -4.21875,-4.84375 z m 8.375,9.78125 0.59375,0.6875 v 0.0313 l 3.46875,4.25 0.84375,-0.6875 -3.5,-4.25 v -0.0313 l -0.59375,-0.6875 z m 8.09375,9.96875 1.15625,1.4375 2.8125,3.625 0.84375,-0.65625 -2.8125,-3.625 h -0.0313 l -1.125,-1.4375 z m 7.84375,10.1875 1.65625,2.1875 2.1875,2.96875 0.84375,-0.625 -2.15625,-2.96875 -0.0313,-0.0313 -1.625,-2.1875 z m 7.59375,10.375 2.125,2.96875 1.5625,2.28125 0.875,-0.625 -1.5625,-2.28125 -2.125,-2.96875 z m 7.3125,10.5625 2.5625,3.78125 1,1.5625 0.90625,-0.59375 -1.03125,-1.5625 -2.53125,-3.78125 z m 7.0625,10.75 2.90625,4.625 0.5,0.8125 0.9375,-0.5625 -0.5,-0.8125 -0.0313,-0.0313 -2.90625,-4.625 z m 6.78125,10.90625 3.25,5.5 0.0313,0.0313 0.90625,-0.53125 v -0.0313 -0.0313 l -3.28125,-5.46875 z m 6.46875,11.09375 0.21875,0.375 2.9375,5.25 0.9375,-0.53125 -2.9375,-5.25 -0.21875,-0.375 z"
           id="path3080"
           style="color:#000000;font-style:normal;font-variant:normal;font-weight:normal;font-stretch:normal;font-size:medium;line-height:normal;font-family:Sans;-inkscape-font-specification:Sans;text-indent:0;text-align:start;text-decoration:none;text-decoration-line:none;letter-spacing:normal;word-spacing:normal;text-transform:none;writing-mode:lr-tb;direction:ltr;baseline-shift:baseline;text-anchor:start;display:inline;overflow:visible;visibility:visible;fill:#808000;fill-opacity:1;stroke:none;stroke-width:1.07225001;marker:none;enable-background:accumulate" />
        <path
           d="m 470.07011,575.2214 -4.94659,-12.80848 12.0661,6.55247 c -3.46063,0.30024 -6.32826,2.83585 -7.11951,6.25601 z"
           id="path4637"
           style="color:#000000;display:inline;overflow:visible;visibility:visible;fill:#808000;fill-opacity:1;fill-rule:evenodd;stroke-width:0.625;stroke-linecap:butt;stroke-linejoin:round;stroke-miterlimit:4;stroke-dasharray:none;stroke-dashoffset:0;stroke-opacity:1;marker:none;enable-background:accumulate" />
      </g>
      <path
         d="m 451.00262,397.44045 c 0,0 -5.83839,3.39857 -10.86591,6.32512 -4.68097,2.72482 -0.0953,20.0021 1.09107,25.5021 1.00943,4.67986 3.46674,13.5111 4.29043,16.47438 0.80141,2.88309 1.9525,5.17509 5.03247,6.40721 1.51708,0.6069 6.15312,-0.43336 7.4735,-4.13323 1.60804,-4.50592 -6.08701,-34.889 -3.32998,-36.49389 2.75702,-1.60488 3.24355,-1.88809 3.24355,-1.88809 z"
         id="use3298"
         style="fill:#a86b3e;fill-opacity:1;stroke:#000000;stroke-width:1.06299007;stroke-linecap:round;stroke-linejoin:round;stroke-miterlimit:4;stroke-dasharray:none;stroke-dashoffset:0;stroke-opacity:1" />
      <rect
         width="168.88837"
         height="12.948108"
         rx="5.0999985"
         ry="5.0999999"
         x="283.15808"
         y="404.43558"
         id="rect3300"
         style="fill:#de9261;fill-opacity:1;stroke:#000000;stroke-width:1.06299007;stroke-linecap:round;stroke-linejoin:round;stroke-miterlimit:4;stroke-dasharray:none;stroke-dashoffset:0;stroke-opacity:1" />
      <path
         d="m 295.10191,410.90973 a 4.50369,4.50369 0 1 1 -9.00738,0 4.50369,4.50369 0 1 1 9.00738,0 z"
         id="path3304"
         style="fill:#f6cd3d;fill-opacity:1;stroke:#000000;stroke-width:0.70866102;stroke-linecap:round;stroke-linejoin:round;stroke-miterlimit:4;stroke-dasharray:none;stroke-dashoffset:0;stroke-opacity:1" />
      <path
         d="m 449.70491,410.90973 a 4.50369,4.50369 0 1 1 -9.00738,0 4.50369,4.50369 0 1 1 9.00738,0 z"
         id="use3306"
         style="fill:#f6cd3d;fill-opacity:1;stroke:#000000;stroke-width:0.70866102;stroke-linecap:round;stroke-linejoin:round;stroke-miterlimit:4;stroke-dasharray:none;stroke-dashoffset:0;stroke-opacity:1" />
      <path
         d="m 447.12015,447.40536 c 0,0 -121.84967,-14.43549 -121.84967,-14.43549 -1.02951,1.59189 -2.89639,2.55198 -4.90009,2.3146 -2.80309,-0.33208 -4.78753,-2.88559 -4.45543,-5.68868 0.33208,-2.80309 2.85823,-4.82224 5.66132,-4.49015 2.00369,0.23738 3.59457,1.6071 4.22361,3.39548 0,0 121.84967,14.43549 121.84967,14.43549 1.0295,-1.59189 2.89639,-2.55197 4.90009,-2.3146 2.80309,0.33207 4.78752,2.88559 4.45544,5.68868 -0.33208,2.80309 -2.85824,4.82223 -5.66132,4.49015 -2.0037,-0.23737 -3.59457,-1.6071 -4.22362,-3.39548 z m 5.12067,-4.17658 c 1.36297,0.16148 2.31896,1.41012 2.15749,2.77309 -0.16148,1.36295 -1.38275,2.35367 -2.74572,2.19219 -1.36297,-0.16146 -2.34999,-1.41378 -2.18852,-2.77675 0.16148,-1.36298 1.41378,-2.35 2.77675,-2.18853 z M 321.26745,427.71241 c -1.36297,-0.16147 -2.58425,0.82923 -2.74572,2.1922 -0.16146,1.36296 0.79452,2.61161 2.15749,2.77308 1.36297,0.16149 2.61528,-0.82555 2.77675,-2.18852 0.16147,-1.36298 -0.82555,-2.61528 -2.18852,-2.77676 z"
         id="path3308"
         style="fill:#f6cd3d;fill-opacity:1;fill-rule:evenodd;stroke:#000000;stroke-width:0.70866102;stroke-linecap:round;stroke-linejoin:miter;stroke-miterlimit:4;stroke-dasharray:none;stroke-dashoffset:0;stroke-opacity:1" />
      <path
         d="M 468.39998,396.67554 28.954524,639.89024 290.63361,410.83163"
         id="path3330"
         style="fill:none;stroke:#d62929;stroke-width:1.07225001;stroke-linecap:butt;stroke-linejoin:miter;stroke-miterlimit:4;stroke-dasharray:6.43349, 6.43349;stroke-dashoffset:0;stroke-opacity:1" />
      <path
         d="M 28.235757,640.33036 H 470.71803"
         id="path3336"
         style="fill:none;stroke:#d62929;stroke-width:1.06298995;stroke-linecap:butt;stroke-linejoin:miter;stroke-miterlimit:4;stroke-dasharray:6.37795, 6.37795;stroke-dashoffset:0;stroke-opacity:1" />
      <g
         transform="translate(162.6429,312.281)"
         id="use3358"
         style="stroke:#525252;stroke-opacity:1">
        <rect
           width="32.577419"
           height="88.640884"
           rx="11.248803"
           ry="11.248803"
           x="294.58572"
           y="289.06567"
           transform="matrix(0.968992,0,0,1.11681,9.38698,-43.6145)"
           id="rect2575"
           style="fill:#aaaaaa;fill-opacity:1;stroke:#525252;stroke-width:1.36245;stroke-linecap:butt;stroke-linejoin:round;stroke-miterlimit:0;stroke-dasharray:none;stroke-dashoffset:0;stroke-opacity:1" />
        <g
           transform="translate(-0.0508569,-0.12631)"
           id="g2577"
           style="stroke:#525252;stroke-opacity:1">
          <path
             d="m 315.04133,279.46922 v 98.74241"
             id="path2579"
             style="fill:none;stroke:#525252;stroke-width:1.41732001;stroke-linecap:butt;stroke-linejoin:round;stroke-miterlimit:0;stroke-dasharray:none;stroke-dashoffset:0;stroke-opacity:1" />
          <use
             transform="translate(-8.73731)"
             id="use2581"
             style="stroke:#525252;stroke-opacity:1"
             x="0"
             y="0"
             width="744.09448"
             height="1052.3622"
             xlink:href="#path6744" />
        </g>
        <g
           id="g2583"
           style="stroke:#525252;stroke-width:1.41732001;stroke-miterlimit:4;stroke-dasharray:none;stroke-opacity:1">
          <path
             d="m 319.53125,280.09375 -1.84375,2.0625 3,3.3125 -3,3.3125 3,3.34375 -3,3.3125 3,3.3125 -3,3.34375 3,3.3125 -3,3.3125 3,3.34375 -3,3.3125 3,3.3125 -3,3.34375 3,3.3125 -3,3.3125 3,3.3125 -3,3.34375 3,3.3125 -3,3.3125 3,3.34375 -3,3.3125 3,3.3125 -3,3.34375 3,3.3125 -3,3.3125 3,3.34375 -3,3.3125 3,3.3125 -3,3.3125 1.90625,2.125"
             id="path2585"
             style="fill:none;stroke:#525252;stroke-width:1.41732001;stroke-linecap:round;stroke-linejoin:round;stroke-miterlimit:4;stroke-dasharray:none;stroke-dashoffset:0;stroke-opacity:1" />
          <path
             d="m 302.4375,279.8125 -2.125,2.34375 3,3.3125 -3,3.3125 3,3.34375 -3,3.3125 3,3.3125 -3,3.34375 3,3.3125 -3,3.3125 3,3.34375 -3,3.3125 3,3.3125 -3,3.34375 3,3.3125 -3,3.3125 3,3.3125 -3,3.34375 3,3.3125 -3,3.3125 3,3.34375 -3,3.3125 3,3.3125 -3,3.34375 3,3.3125 -3,3.3125 3,3.34375 -3,3.3125 3,3.3125 -3,3.3125 2.25,2.53125"
             id="path2587"
             style="fill:none;stroke:#525252;stroke-width:1.41732001;stroke-linecap:round;stroke-linejoin:round;stroke-miterlimit:4;stroke-dasharray:none;stroke-dashoffset:0;stroke-opacity:1" />
          <path
             d="m 310.34375,279.21875 -2.65625,2.9375 3,3.3125 -3,3.3125 3,3.34375 -3,3.3125 3,3.3125 -3,3.34375 3,3.3125 -3,3.3125 3,3.34375 -3,3.3125 3,3.3125 -3,3.34375 3,3.3125 -3,3.3125 3,3.3125 -3,3.34375 3,3.3125 -3,3.3125 3,3.34375 -3,3.3125 3,3.3125 -3,3.34375 3,3.3125 -3,3.3125 3,3.34375 -3,3.3125 3,3.3125 -3,3.3125 2.75,3.0625"
             transform="translate(1.3125)"
             id="path2589"
             style="fill:none;stroke:#525252;stroke-width:1.41732001;stroke-linecap:round;stroke-linejoin:round;stroke-miterlimit:4;stroke-dasharray:none;stroke-dashoffset:0;stroke-opacity:1" />
        </g>
      </g>
      <g
         transform="translate(-47.3571,312.281)"
         id="use3360"
         style="stroke:#525252;stroke-opacity:1">
        <rect
           width="32.577419"
           height="88.640884"
           rx="11.248803"
           ry="11.248803"
           x="294.58572"
           y="289.06567"
           transform="matrix(0.968992,0,0,1.11681,9.38698,-43.6145)"
           id="rect2593"
           style="fill:#aaaaaa;fill-opacity:1;stroke:#525252;stroke-width:1.36245;stroke-linecap:butt;stroke-linejoin:round;stroke-miterlimit:0;stroke-dasharray:none;stroke-dashoffset:0;stroke-opacity:1" />
        <g
           transform="translate(-0.0508569,-0.12631)"
           id="g2595"
           style="stroke:#525252;stroke-opacity:1">
          <path
             d="m 315.04133,279.46922 v 98.74241"
             id="path2597"
             style="fill:none;stroke:#525252;stroke-width:1.41732001;stroke-linecap:butt;stroke-linejoin:round;stroke-miterlimit:0;stroke-dasharray:none;stroke-dashoffset:0;stroke-opacity:1" />
          <use
             transform="translate(-8.73731)"
             id="use2599"
             style="stroke:#525252;stroke-opacity:1"
             x="0"
             y="0"
             width="744.09448"
             height="1052.3622"
             xlink:href="#path6744" />
        </g>
        <g
           id="g2601"
           style="stroke:#525252;stroke-width:1.41732001;stroke-miterlimit:4;stroke-dasharray:none;stroke-opacity:1">
          <path
             d="m 319.53125,280.09375 -1.84375,2.0625 3,3.3125 -3,3.3125 3,3.34375 -3,3.3125 3,3.3125 -3,3.34375 3,3.3125 -3,3.3125 3,3.34375 -3,3.3125 3,3.3125 -3,3.34375 3,3.3125 -3,3.3125 3,3.3125 -3,3.34375 3,3.3125 -3,3.3125 3,3.34375 -3,3.3125 3,3.3125 -3,3.34375 3,3.3125 -3,3.3125 3,3.34375 -3,3.3125 3,3.3125 -3,3.3125 1.90625,2.125"
             id="path2603"
             style="fill:none;stroke:#525252;stroke-width:1.41732001;stroke-linecap:round;stroke-linejoin:round;stroke-miterlimit:4;stroke-dasharray:none;stroke-dashoffset:0;stroke-opacity:1" />
          <path
             d="m 302.4375,279.8125 -2.125,2.34375 3,3.3125 -3,3.3125 3,3.34375 -3,3.3125 3,3.3125 -3,3.34375 3,3.3125 -3,3.3125 3,3.34375 -3,3.3125 3,3.3125 -3,3.34375 3,3.3125 -3,3.3125 3,3.3125 -3,3.34375 3,3.3125 -3,3.3125 3,3.34375 -3,3.3125 3,3.3125 -3,3.34375 3,3.3125 -3,3.3125 3,3.34375 -3,3.3125 3,3.3125 -3,3.3125 2.25,2.53125"
             id="path2605"
             style="fill:none;stroke:#525252;stroke-width:1.41732001;stroke-linecap:round;stroke-linejoin:round;stroke-miterlimit:4;stroke-dasharray:none;stroke-dashoffset:0;stroke-opacity:1" />
          <path
             d="m 310.34375,279.21875 -2.65625,2.9375 3,3.3125 -3,3.3125 3,3.34375 -3,3.3125 3,3.3125 -3,3.34375 3,3.3125 -3,3.3125 3,3.34375 -3,3.3125 3,3.3125 -3,3.34375 3,3.3125 -3,3.3125 3,3.3125 -3,3.34375 3,3.3125 -3,3.3125 3,3.34375 -3,3.3125 3,3.3125 -3,3.34375 3,3.3125 -3,3.3125 3,3.34375 -3,3.3125 3,3.3125 -3,3.3125 2.75,3.0625"
             transform="translate(1.3125)"
             id="path2607"
             style="fill:none;stroke:#525252;stroke-width:1.41732001;stroke-linecap:round;stroke-linejoin:round;stroke-miterlimit:4;stroke-dasharray:none;stroke-dashoffset:0;stroke-opacity:1" />
        </g>
      </g>
      <g
         transform="rotate(-39.228433,430.13298,437.07579)"
         id="use3272"
         style="stroke:#525252;stroke-opacity:1">
        <rect
           width="32.577419"
           height="88.640884"
           rx="11.248803"
           ry="11.248803"
           x="294.58572"
           y="289.06567"
           transform="matrix(0.968992,0,0,1.11681,9.38698,-43.6145)"
           id="rect2611"
           style="fill:#aaaaaa;fill-opacity:1;stroke:#525252;stroke-width:1.36245;stroke-linecap:butt;stroke-linejoin:round;stroke-miterlimit:0;stroke-dasharray:none;stroke-dashoffset:0;stroke-opacity:1" />
        <g
           transform="translate(-0.0508569,-0.12631)"
           id="g2613"
           style="stroke:#525252;stroke-opacity:1">
          <path
             d="m 315.04133,279.46922 v 98.74241"
             id="path2615"
             style="fill:none;stroke:#525252;stroke-width:1.41732001;stroke-linecap:butt;stroke-linejoin:round;stroke-miterlimit:0;stroke-dasharray:none;stroke-dashoffset:0;stroke-opacity:1" />
          <use
             transform="translate(-8.73731)"
             id="use2617"
             style="stroke:#525252;stroke-opacity:1"
             x="0"
             y="0"
             width="744.09448"
             height="1052.3622"
             xlink:href="#path6744" />
        </g>
        <g
           id="g2619"
           style="stroke:#525252;stroke-width:1.41732001;stroke-miterlimit:4;stroke-dasharray:none;stroke-opacity:1">
          <path
             d="m 319.53125,280.09375 -1.84375,2.0625 3,3.3125 -3,3.3125 3,3.34375 -3,3.3125 3,3.3125 -3,3.34375 3,3.3125 -3,3.3125 3,3.34375 -3,3.3125 3,3.3125 -3,3.34375 3,3.3125 -3,3.3125 3,3.3125 -3,3.34375 3,3.3125 -3,3.3125 3,3.34375 -3,3.3125 3,3.3125 -3,3.34375 3,3.3125 -3,3.3125 3,3.34375 -3,3.3125 3,3.3125 -3,3.3125 1.90625,2.125"
             id="path2621"
             style="fill:none;stroke:#525252;stroke-width:1.41732001;stroke-linecap:round;stroke-linejoin:round;stroke-miterlimit:4;stroke-dasharray:none;stroke-dashoffset:0;stroke-opacity:1" />
          <path
             d="m 302.4375,279.8125 -2.125,2.34375 3,3.3125 -3,3.3125 3,3.34375 -3,3.3125 3,3.3125 -3,3.34375 3,3.3125 -3,3.3125 3,3.34375 -3,3.3125 3,3.3125 -3,3.34375 3,3.3125 -3,3.3125 3,3.3125 -3,3.34375 3,3.3125 -3,3.3125 3,3.34375 -3,3.3125 3,3.3125 -3,3.34375 3,3.3125 -3,3.3125 3,3.34375 -3,3.3125 3,3.3125 -3,3.3125 2.25,2.53125"
             id="path2623"
             style="fill:none;stroke:#525252;stroke-width:1.41732001;stroke-linecap:round;stroke-linejoin:round;stroke-miterlimit:4;stroke-dasharray:none;stroke-dashoffset:0;stroke-opacity:1" />
          <path
             d="m 310.34375,279.21875 -2.65625,2.9375 3,3.3125 -3,3.3125 3,3.34375 -3,3.3125 3,3.3125 -3,3.34375 3,3.3125 -3,3.3125 3,3.34375 -3,3.3125 3,3.3125 -3,3.34375 3,3.3125 -3,3.3125 3,3.3125 -3,3.34375 3,3.3125 -3,3.3125 3,3.34375 -3,3.3125 3,3.3125 -3,3.34375 3,3.3125 -3,3.3125 3,3.34375 -3,3.3125 3,3.3125 -3,3.3125 2.75,3.0625"
             transform="translate(1.3125)"
             id="path2625"
             style="fill:none;stroke:#525252;stroke-width:1.41732001;stroke-linecap:round;stroke-linejoin:round;stroke-miterlimit:4;stroke-dasharray:none;stroke-dashoffset:0;stroke-opacity:1" />
        </g>
      </g>
      <g
         transform="rotate(-30.203977,516.10976,69.641204)"
         id="g3274"
         style="stroke:#525252;stroke-opacity:1">
        <rect
           width="32.577419"
           height="88.640884"
           rx="11.248803"
           ry="11.248803"
           x="294.58572"
           y="289.06567"
           transform="matrix(0.968992,0,0,1.11681,9.38698,-43.6145)"
           id="rect3276"
           style="fill:#aaaaaa;fill-opacity:1;stroke:#525252;stroke-width:1.36245;stroke-linecap:butt;stroke-linejoin:round;stroke-miterlimit:0;stroke-dasharray:none;stroke-dashoffset:0;stroke-opacity:1" />
        <g
           transform="translate(-0.0508569,-0.12631)"
           id="g3278"
           style="stroke:#525252;stroke-opacity:1">
          <path
             d="m 315.04133,279.46922 v 98.74241"
             id="path3280"
             style="fill:none;stroke:#525252;stroke-width:1.41732001;stroke-linecap:butt;stroke-linejoin:round;stroke-miterlimit:0;stroke-dasharray:none;stroke-dashoffset:0;stroke-opacity:1" />
          <use
             transform="translate(-8.73731)"
             id="use3282"
             style="stroke:#525252;stroke-opacity:1"
             x="0"
             y="0"
             width="744.09448"
             height="1052.3622"
             xlink:href="#path6744" />
        </g>
        <g
           id="g3284"
           style="stroke:#525252;stroke-width:1.41732001;stroke-miterlimit:4;stroke-dasharray:none;stroke-opacity:1">
          <path
             d="m 319.53125,280.09375 -1.84375,2.0625 3,3.3125 -3,3.3125 3,3.34375 -3,3.3125 3,3.3125 -3,3.34375 3,3.3125 -3,3.3125 3,3.34375 -3,3.3125 3,3.3125 -3,3.34375 3,3.3125 -3,3.3125 3,3.3125 -3,3.34375 3,3.3125 -3,3.3125 3,3.34375 -3,3.3125 3,3.3125 -3,3.34375 3,3.3125 -3,3.3125 3,3.34375 -3,3.3125 3,3.3125 -3,3.3125 1.90625,2.125"
             id="path3286"
             style="fill:none;stroke:#525252;stroke-width:1.41732001;stroke-linecap:round;stroke-linejoin:round;stroke-miterlimit:4;stroke-dasharray:none;stroke-dashoffset:0;stroke-opacity:1" />
          <path
             d="m 302.4375,279.8125 -2.125,2.34375 3,3.3125 -3,3.3125 3,3.34375 -3,3.3125 3,3.3125 -3,3.34375 3,3.3125 -3,3.3125 3,3.34375 -3,3.3125 3,3.3125 -3,3.34375 3,3.3125 -3,3.3125 3,3.3125 -3,3.34375 3,3.3125 -3,3.3125 3,3.34375 -3,3.3125 3,3.3125 -3,3.34375 3,3.3125 -3,3.3125 3,3.34375 -3,3.3125 3,3.3125 -3,3.3125 2.25,2.53125"
             id="path3288"
             style="fill:none;stroke:#525252;stroke-width:1.41732001;stroke-linecap:round;stroke-linejoin:round;stroke-miterlimit:4;stroke-dasharray:none;stroke-dashoffset:0;stroke-opacity:1" />
          <path
             d="m 310.34375,279.21875 -2.65625,2.9375 3,3.3125 -3,3.3125 3,3.34375 -3,3.3125 3,3.3125 -3,3.34375 3,3.3125 -3,3.3125 3,3.34375 -3,3.3125 3,3.3125 -3,3.34375 3,3.3125 -3,3.3125 3,3.3125 -3,3.34375 3,3.3125 -3,3.3125 3,3.34375 -3,3.3125 3,3.3125 -3,3.34375 3,3.3125 -3,3.3125 3,3.34375 -3,3.3125 3,3.3125 -3,3.3125 2.75,3.0625"
             transform="translate(1.3125)"
             id="path3290"
             style="fill:none;stroke:#525252;stroke-width:1.41732001;stroke-linecap:round;stroke-linejoin:round;stroke-miterlimit:4;stroke-dasharray:none;stroke-dashoffset:0;stroke-opacity:1" />
        </g>
      </g>
    </g>
  </g>
</svg>
