Select	Brand	Model	Year	Tire Type	Price Range	Buy At	Tread Casing Ratio	Specified Width	Measured Width	Specified Weight	Measured Weight	RR 4.1 bar	RR 5.5 bar	RR 6.9 bar	RR 8.3 bar	Average Wet Grip	Center Wet Grip	Edge Wet Grip	Tread Puncture Score	Sidewall Puncture Score	Tread Puncture Force Sharp	Sidewall Puncture Force Sharp	Tread Puncture Force Blunt	Sidewall Puncture Force Blunt	Tread Tire Thickness	Sidewall Tire Thickness	Rating
on (i)	Vittoria	Corsa Speed G+ 2.0 (TLR)	2019	TL	High	--	35.7	25	26.5	240	227	9.3	8.3	7.5	7.0	70	74	67	33	12	8.4	4.2	9.0	4.2	1.8	0.85	5.0
on (i)	Schwalbe	Pro One TT TLE Addix	2020	TL	High	Rose.de	48.5	25	26.9	205	222	10.7	9.0	8.1	7.5	55	53	58	24	15	6.2	5.2	7.0	5.4	1.6	0.90	3.5
on (i)	Vittoria	Corsa Speed G+ 1.0 (TLR)	2016	TL	High	--	37.9	23	24.8	205	225	10.9	9.2	8.3	7.7	--	--	--	31	14	8.4	5.0	--	--	1.7	0.85	5.0
on (i)	Continental	Grand Prix 5000 TL	2018	TL	High	Rose.de	40.9	25	26.8	300	295	11.6	9.9	8.9	8.3	65	64	67	47	15	10.0	6.0	9.6	4.4	2.8	0.95	5.0
on (i)	Continental	Grand Prix 5000 S TR	2021	TL	High+	Rose.de	42.2	25	25.5	250	255	11.8	10.1	9.1	8.4	66	67	65	36	17	7.6	5.8	9.2	6.0	2.3	0.90	4.6
on (i)	Michelin	Power Cup TLR	2022	TL	High	--	35.2	25	27.7	270	259	12.0	10.2	9.2	8.6	71	71	72	42	17	9.2	6.0	10.0	5.2	2.4	0.95	4.8
on (i)	Michelin	Power Time Trial	2020	TT	High	--	40.9	25	27.2	190	206	12.7	10.6	9.2	8.6	67	66	67	35	09	8.2	3.6	8.8	3.6	2.1	0.55	5.0
on (i)	Veloflex	Record (silica compound)	2021	TT	High	--	42.2	23	24.2	135	137	13.8	11.4	9.8	9.0	78	80	75	21	14	7.0	6.8	7.2	4.2	0.9	0.60	4.3
on (i)	Vittoria	Corsa Speed (tubular)	2017	TU	High+	--	--	23	22.9	200	209	12.7	11.1	9.9	9.1	--	--	--	29	11	8.2	3.8	--	--	1.5	0.45	5.0
on (i)	Continental	Grand Prix 5000 S TR (tanwall)	2022	TL	High+	Rose.de	42.2	25	24.9	250	252	13.8	11.5	10.3	9.6	69	71	67	38	17	8.4	5.8	9.2	5.8	2.3	0.85	4.3
on (i)	Zipp	Tangente Speed Tubeless	2021	TL	High+	--	36.5	25	25.9	292	295	14.3	11.8	10.3	9.6	62	59	66	50	19	10.6	5.4	11.2	6.6	2.6	1.10	4.3
on (i)	Specialized	Turbo RapidAir 2Bliss Ready	2020	TL	High+	--	44.6	26	26.0	265	261	14.7	12.1	10.5	9.7	73	73	73	40	19	9.4	5.0	9.8	7.0	2.2	1.10	4.3
on (i)	Continental	Grand Prix TT	2016	TT	High	Rose.de	--	25	27.4	190	195	13.9	11.8	10.5	9.9	--	--	--	34	11	8.8	4.6	--	--	1.9	0.45	5.0
on (i)	Continental	Grand Prix 5000	2018	TT	High	Rose.de	42.4	25	26.3	215	221	14.2	12.1	10.7	10.0	67	66	67	49	11	10.0	4.2	10.6	4.4	2.8	0.55	5.0
on (i)	Michelin	Power Road TLR	2020	TL	High	--	37.3	25	27.1	275	267	14.3	12.1	10.7	10.1	65	62	68	41	19	9.6	5.0	7.8	7.4	2.7	1.00	4.0
on (i)	Hutchinson	Fusion 5 Galactik TL	2017	TL	High	--	37.5	25	25.5	260	288	14.6	12.3	11.0	10.1	--	--	--	41	15	9.4	5.0	--	--	2.5	1.05	5.0
on (i)	Specialized	Turbo Cotton	2016	TT	High+	--	--	24	25.4	220	224	15.0	12.5	11.1	10.1	--	--	--	36	13	9.0	4.8	--	--	2.1	0.75	5.0
on (i)	Pirelli	P Zero Velo TT	2017	TT	High	Rose.de	38.1	23	24.9	165	163	14.6	12.2	11.0	10.2	--	--	--	28	10	7.6	4.0	--	--	1.7	0.60	5.0
on (i)	Continental	Grand Prix SuperSonic	2017	TT	High	--	43.5	23	25.0	150	179	15.0	12.5	11.0	10.2	--	--	--	29	12	7.4	5.0	--	--	1.9	0.50	4.0
on (i)	Schwalbe	Pro One TLE Addix	2020	TL	High	Rose.de	46.9	25	26.0	245	263	14.7	12.5	11.2	10.2	64	58	71	43	15	10.0	5.2	8.4	5.6	2.7	0.85	4.0
on (i)	Pirelli	P Zero Velo Race TLR SL	2020	TL	High	--	44.4	26	26.6	245	247	15.6	12.9	11.3	10.3	67	64	71	36	22	8.2	7.2	8.2	7.2	2.4	1.10	4.0
on (i)	Continental	Grand Prix 4000 RS	2018	TT	High	--	--	25	27.3	205	205	14.4	12.3	11.0	10.5	--	--	--	40	11	9.4	4.4	--	--	2.3	0.55	5.0
on (i)	Veloflex	Corsa Race TLR	2021	TL	High	--	46.3	25	25.7	225	222	14.8	12.7	11.4	10.6	66	65	67	58	16	13.6	6.8	14.2	4.6	2.2	0.85	4.3
on (i)	Michelin	Power Competition	2016	TT	High	Rose.de	--	25	26.8	215	212	16.6	13.6	11.8	10.9	--	--	--	50	09	11.2	3.6	--	--	2.6	0.50	5.0
on (i)	Schwalbe	Pro One Tubeless	2016	TL	High	Rose.de	--	25	27.1	255	257	14.8	12.8	11.6	11.0	--	--	--	49	17	11.6	6.0	--	--	2.3	0.90	5.0
on (i)	Continental	Grand Prix Force II	2016	TT	High	Rose.de	--	24	25.8	195	196	16.3	13.4	11.6	11.0	--	--	--	39	10	9.2	4.0	--	--	2.3	0.50	4.0
on (i)	Enve	SES Road Tire Tubeless	2020	TL	High+	--	45.5	25	26.7	255	243	17.2	14.4	12.4	11.4	69	68	71	64	16	15.6	5.2	14.8	6.6	2.2	0.70	4.0
on (i)	Bontrager	R4 320	2016	TT	High+	--	--	25	25.3	230	226	16.4	13.9	12.2	11.5	--	--	--	44	12	10.8	4.4	--	--	2.2	0.80	4.0
on (i)	Zipp	Tangente Speed	2017	TT	High	Rose.de	--	25	25.7	0	190	17.3	14.6	12.5	11.6	--	--	--	30	08	7.4	3.4	--	--	2.1	0.45	4.0
on (i)	Mavic	Yksion Pro UST Tubeless	2018	TL	High	Rose.de	42.2	25	26.7	260	256	15.4	13.3	12.2	11.7	--	--	--	50	21	10.8	6.8	--	--	2.8	1.10	5.0
on (i)	Pirelli	P Zero Velo Race TLR	2020	TL	High	--	41.9	26	26.0	270	267	16.9	14.3	12.7	11.7	67	63	71	57	25	12.2	7.6	10.4	8.4	3.0	1.10	4.5
on (i)	Continental	Grand Prix Attack II	2016	TT	High	Rose.de	--	22	23.9	175	182	17.9	14.6	12.7	11.7	--	--	--	37	10	9.0	4.0	--	--	2.2	0.45	4.0
on (i)	Challenge	Strada Pro HTLR	2022	TL	High+	Rose.de	44.8	25	25.0	255	261	15.7	13.4	12.4	11.8	59	58	60	50	16	12.2	5.0	10.6	5.8	2.4	1.00	3.5
on (i)	Schwalbe	One Tubeless	2014	TL	High	--	--	25	26.3	340	344	16.3	13.8	12.5	11.8	--	--	--	58	26	12.2	8.0	--	--	2.9	1.20	4.0
on (i)	Vittoria	Rubino Pro Speed	2016	TT	High	--	50.8	25	26.9	190	206	17.4	14.3	12.6	11.9	--	--	--	37	08	8.8	3.0	--	--	2.3	0.50	4.0
on (i)	Veloflex	Corsa Evo TLR	2021	TL	High	--	46.3	25	25.4	235	236	16.7	14.4	12.8	11.9	68	70	67	60	18	14.2	6.2	13.2	6.0	2.4	0.95	4.0
on (i)	Hutchinson	Fusion 5 Galactik TLR 11Storm	2021	TL	High	--	36.9	25	26.9	240	226	16.9	14.8	13.1	12.0	65	63	67	43	23	10.0	7.6	9.4	7.6	2.4	1.05	3.5
on (i)	Wolfpack	Road Race	2020	TT	High	--	48.5	26	26.9	225	247	19.2	15.5	13.3	12.1	67	58	76	48	12	10.8	4.6	8.8	4.8	2.9	0.60	4.0
on (i)	Vittoria	Corsa G+ 2.0 TLR	2020	TL	High	--	44.9	25	26.7	290	297	16.8	14.3	12.8	12.2	70	69	71	54	15	12.4	5.2	10.2	4.4	2.8	1.05	4.0
on (i)	Continental	Grand Prix 4000S II	2014	TT	High	--	--	25	27.2	225	215	15.5	13.7	12.9	12.2	--	--	--	52	14	11.0	5.4	--	--	2.9	0.55	5.0
on (i)	Vittoria	Corsa G+ 1.0 (open)	2016	TT	High	--	--	25	26.8	240	255	16.3	14.1	12.9	12.2	--	--	--	47	15	11.0	5.6	--	--	2.4	0.75	5.0
on (i)	Schwalbe	One V-Guard	2014	TT	High	Rose.de	--	25	27.0	225	243	16.6	14.0	12.8	12.3	--	--	--	59	12	12.4	4.6	--	--	2.9	0.50	5.0
on (i)	Vittoria	Corsa G+ (tubular)	2016	TU	High+	--	--	25	24.8	280	281	16.4	14.1	12.8	12.3	--	--	--	49	10	11.6	3.6	--	--	2.3	0.65	5.0
on (i)	Veloflex	Corsa Race (clincher)	2021	TT	High	--	45.6	25	25.6	200	203	17.0	14.5	13.1	12.3	69	67	71	54	14	12.4	6.0	14.0	4.0	2.1	0.70	4.0
on (i)	Vittoria	Corsa N.EXT TLR	2022	TL	High	--	40.0	26	26.1	280	268	16.9	14.6	13.2	12.3	73	74	73	52	17	10.0	5.6	10.8	5.2	3.0	1.10	4.5
on (i)	Michelin	Power Road	2020	TT	High	--	41.8	25	26.5	235	239	18.2	15.1	13.3	12.4	68	66	69	55	13	11.2	4.6	11.8	5.2	2.8	0.70	4.0
on (i)	Pirelli	P Zero Velo	2017	TT	High	Rose.de	--	25	27.4	210	210	17.2	14.6	13.2	12.5	--	--	--	54	12	12.0	4.8	--	--	2.6	0.60	5.0
on (i)	Vittoria	Corsa Control G+ 2.0 TLR	2020	TL	High	--	48.6	25	26.8	300	307	16.8	14.6	13.3	12.6	71	70	72	53	14	12.0	5.0	9.8	4.0	2.9	1.05	4.1
on (i)	Pirelli	P Zero Race	2021	TT	High	Rose.de	42.4	26	26.3	205	204	17.3	15.0	13.5	12.6	60	61	60	55	11	11.8	4.6	13.6	4.0	2.3	0.55	3.7
on (i)	Schwalbe	Pro One (tubetype) Addix	2020	TT	High	Rose.de	48.4	25	25.3	235	243	18.7	15.4	13.8	12.8	63	55	71	48	18	11.4	5.8	8.0	7.6	2.9	0.70	4.0
on (i)	Schwalbe	Ironman Tubeless	2015	TL	High	--	--	24	25.4	330	336	16.6	14.5	13.5	12.9	--	--	--	66	24	13.4	7.6	--	--	3.2	1.20	3.0
on (i)	Vittoria	Corsa Elite (tubular)	2017	TU	High	--	--	25	25.0	290	298	18.1	15.4	13.6	12.9	--	--	--	51	09	12.0	3.4	--	--	2.4	0.60	4.0
on (i)	Vittoria	Open Corsa CX III	2014	TT	High	--	--	25	27.6	220	237	16.9	14.8	13.6	13.0	--	--	--	--	--	12.0	--	--	--	--	--	4.0
on (i)	Cadex	Race Tubeless	2022	TL	High+	--	46.3	25	26.2	270	276	18.2	15.3	13.8	13.0	71	74	68	48	17	9.6	5.8	11.2	5.4	2.6	1.00	3.5
on (i)	Vittoria	Corsa G+ 2.0 (open)	2019	TT	High	Rose.de	44.3	25	26.6	255	260	18.6	15.5	14.0	13.0	69	67	72	49	15	12.0	5.6	9.4	4.6	2.6	0.90	4.0
on (i)	Maxxis	Padrone Tubeless Ready	2018	TL	High	--	37.5	25	25.0	270	264	19.3	15.8	14.0	13.1	--	--	--	54	15	12.0	5.2	--	--	2.6	0.90	4.0
on (i)	Hutchinson	Fusion 5 Performance TL	2017	TL	High	--	37.1	25	25.7	315	323	17.8	15.8	14.0	13.1	--	--	--	53	26	11.0	7.8	--	--	3.0	1.30	5.0
on (i)	Maxxis	High Road	2019	TT	High	--	40.3	25	27.4	210	209	18.2	16.0	14.2	13.2	68	68	69	53	13	13.0	4.6	10.2	6.0	2.6	0.50	4.0
on (i)	Challenge	Strada Pro	2017	TT	High	Rose.de	--	25	26.9	240	254	17.9	15.3	14.0	13.4	--	--	--	49	09	11.8	3.0	--	--	2.3	1.00	3.0
on (i)	Veloflex	Corsa	2016	TT	High	--	--	25	25.2	205	200	18.2	15.8	14.0	13.4	--	--	--	51	12	12.8	4.2	--	--	2.1	0.75	4.0
on (i)	Vittoria	Rubino Pro III	2014	TT	Med	--	--	25	26.1	235	238	18.6	16.0	14.0	13.4	--	--	--	60	--	12.2	7.4	--	3.8	3.2	0.55	4.0
on (i)	Specialized	S-Works Turbo	2016	TT	High	--	50.0	25	25.2	210	215	19.6	16.3	14.4	13.4	--	--	--	47	12	10.0	4.6	--	--	2.8	0.50	3.0
on (i)	Bontrager	R3 Hard-Case Lite TLR	2021	TL	High+	--	40.0	25	25.9	285	300	18.9	16.3	14.4	13.6	67	70	64	55	17	10.6	5.2	12.4	6.2	2.8	1.00	3.0
on (i)	Pirelli	P Zero Road	2021	TT	High	Rose.de	44.6	26	25.6	235	222	20.3	17.0	14.8	13.7	68	70	67	42	13	10.2	6.0	8.0	4.4	2.6	0.55	3.0
on (i)	Panaracer	Race L Evo 3	2018	TT	High	--	43.5	25	27.0	200	199	19.0	16.4	14.6	13.9	--	--	--	59	17	14.4	6.8	--	--	2.2	0.50	4.0
on (i)	Goodyear	Eagle F1 Tubeless	2021	TL	High	--	39.1	25	25.7	275	280	18.8	16.1	14.7	13.9	67	68	65	43	18	9.2	6.2	8.8	6.4	2.8	0.90	3.0
on (i)	Continental	Grand Prix	2014	TT	Med	Rose.de	--	25	26.3	245	239	18.5	15.9	14.5	14.0	--	--	--	--	--	13.0	--	--	--	--	--	4.0
on (i)	Continental	Ultra Sport III	2020	TT	Low	--	42.2	25	25.8	270	267	19.4	16.6	14.7	14.1	71	70	72	53	13	10.4	4.6	10.6	5.2	3.0	0.70	3.1
on (i)	Schwalbe	Ultremo ZX	2014	TT	Med	--	--	25	25.3	215	229	19.5	16.3	15.0	14.1	--	--	--	--	--	12.2	--	--	--	--	--	2.0
on (i)	Vittoria	Corsa Control G+ 2.0 (open)	2019	TT	High	--	48.6	25	27.1	265	262	20.1	17.0	15.4	14.1	70	68	72	53	12	12.0	5.4	10.4	3.8	2.7	0.90	4.0
on (i)	Michelin	Pro 4 Endurance v2	2015	TT	High	--	--	25	27.6	245	245	19.1	16.3	14.9	14.2	--	--	--	72	24	15.0	8.4	--	--	2.9	0.90	5.0
on (i)	Continental	Competition (tubular)	2016	TU	High+	Rose.de	--	25	25.1	280	285	18.7	16.5	15.3	14.2	--	--	--	50	10	11.4	4.0	--	--	2.5	0.55	3.0
on (i)	Continental	Ultra Sport II	2015	TT	Low	Rose.de	--	25	25.9	260	267	18.9	16.4	14.8	14.3	--	--	--	51	12	10.8	4.4	--	--	3.0	0.70	3.0
on (i)	Hutchinson	Fusion 5 All Season TL	2017	TL	High	--	37.1	25	25.0	325	335	19.1	16.8	15.2	14.3	--	--	--	50	26	10.0	7.8	--	--	3.3	1.30	4.0
on (i)	Michelin	Power Endurance	2016	TT	High	--	--	25	26.7	230	235	21.2	17.9	15.6	14.5	--	--	--	63	15	13.4	5.6	--	--	2.8	0.60	3.0
on (i)	Continental	Grand Prix 4 Season 2022	2022	TT	High	Rose.de	37.9	25	26.9	230	228	20.4	17.6	15.5	14.6	70	71	69	61	20	13.0	7.0	12.4	7.4	2.8	0.75	4.0
on (i)	Pirelli	P Zero Velo 4S	2017	TT	High	Rose.de	--	25	27.3	220	220	20.2	17.6	15.9	14.7	--	--	--	65	14	13.6	5.2	--	--	2.9	0.65	5.0
on (i)	IRC	Formula Pro Tubeless RBCC	2021	TL	High	--	72.1	25	25.0	299	299	20.1	17.5	15.7	14.8	64	64	64	48	21	10.2	6.6	9.0	6.2	3.0	1.35	2.8
on (i)	Vittoria	Rubino Pro G+ 1.0	2016	TT	Med	--	52.4	25	25.6	235	248	22.3	18.2	16.0	14.8	--	--	--	57	15	12.0	5.8	--	--	3.0	0.55	3.0
on (i)	Michelin	Pro 4 Service Course	2014	TT	Med	--	--	25	27.9	215	222	20.1	17.6	16.0	14.9	--	--	--	72	17	15.0	6.6	--	--	2.9	0.55	4.0
on (i)	Mavic	Yksion Elite	2018	TT	High	Rose.de	46.8	25	26.1	215	226	21.6	17.9	16.1	15.0	--	--	--	44	12	9.2	4.6	--	--	3.0	0.65	2.0
on (i)	Vittoria	Zaffiro Pro G+ 2.0	2020	TT	Low	Rose.de	48.5	25	26.0	280	282	21.6	18.2	16.3	15.2	66	64	67	56	09	9.8	3.0	11.2	3.2	3.3	0.85	2.0
on (i)	Vittoria	Rubino Pro G+ 2.0	2019	TT	Med	Rose.de	53.1	25	25.8	250	245	23.6	19.0	16.4	15.2	70	67	73	51	15	11.0	5.4	10.0	5.8	2.9	0.65	3.0
on (i)	Zipp	Tangente Course	2017	TT	High	Rose.de	--	25	25.0	0	215	22.7	18.9	16.7	15.3	--	--	--	55	14	12.0	5.4	--	--	2.7	0.65	3.0
on (i)	Michelin	Krylion 2 Endurance	2017	TT	Med	--	37.1	25	27.3	245	261	21.0	17.9	16.3	15.4	--	--	--	71	20	14.8	7.0	--	--	3.0	0.85	4.0
on (i)	Schwalbe	One Performance Addix	2020	TT	Med	--	46.2	25	26.4	245	248	22.8	18.7	16.6	15.4	71	70	73	48	13	11.2	4.8	8.6	5.2	2.8	0.60	3.1
on (i)	Pirelli	Cinturato Velo TLR	2018	TL	High	Rose.de	42.4	26	27.8	290	306	22.3	18.7	16.6	15.6	69	67	72	103	23	20.0	7.2	16.2	8.2	3.7	0.95	5.0
on (i)	Vittoria	Corsa Control G+ 1.0 (open)	2018	TT	High	--	47.9	25	27.0	265	260	21.1	18.1	16.7	15.6	--	--	--	57	15	12.6	5.2	--	--	2.6	0.85	4.0
on (i)	Vittoria	Zaffiro Slick	2015	TT	Low	--	--	25	26.1	370	398	24.4	20.1	17.1	15.7	--	--	--	58	14	10.8	4.8	--	--	3.6	0.85	2.0
on (i)	Schwalbe	One TLE Performance Addix	2020	TL	Med	--	42.6	25	26.4	275	306	21.2	18.4	16.8	15.8	72	72	73	49	15	10.2	5.2	9.4	4.8	3.0	1.00	3.2
on (i)	Michelin	Lithion 2	2015	TT	Med	Rose.de	--	25	27.1	250	268	22.0	18.7	16.7	15.9	--	--	--	61	12	12.8	4.8	--	--	3.0	0.55	3.0
on (i)	Schwalbe	Pro One HT (tubular)	2017	TU	High+	--	--	25	25.1	290	303	21.6	19.1	17.4	16.1	--	--	--	45	07	10.0	3.0	--	--	2.6	0.45	2.0
on (i)	Panaracer	Race A Evo 3	2018	TT	High	--	44.8	25	26.6	240	247	22.1	19.0	17.1	16.4	--	--	--	75	26	16.4	9.2	--	--	2.7	0.80	4.0
on (i)	Schwalbe	Durano Plus Addix	2020	TT	Med	Rose.de	42.9	25	26.2	385	399	22.3	19.0	17.1	16.4	69	72	66	69	22	12.0	6.0	8.8	6.8	4.6	1.45	3.0
on (i)	Vittoria	Rubino Pro Control	2016	TT	Med	--	75.4	25	25.7	320	297	25.0	20.6	17.7	16.9	--	--	--	60	19	12.0	6.2	--	--	3.3	1.05	3.0
on (i)	Clement	Strada LGG	2017	TT	High	--	38.7	25	26.3	0	225	23.2	20.0	17.9	16.9	--	--	--	74	09	14.6	3.6	--	--	3.3	0.50	2.0
on (i)	Continental	Grand Prix 4 Season 2015	2015	TT	High	Rose.de	--	25	26.8	240	215	22.5	19.8	18.1	17.2	--	--	--	80	21	17.4	7.6	--	--	2.7	0.70	4.0
on (i)	Michelin	Dynamic Sport	2015	TT	Low	Rose.de	--	25	25.0	305	304	23.2	19.5	18.1	17.3	--	--	--	42	12	8.4	4.4	--	--	3.2	0.70	2.0
on (i)	Panaracer	Race D Evo 3	2018	TT	High	--	44.6	25	26.8	250	249	23.9	20.7	18.6	17.4	--	--	--	78	25	16.0	8.8	--	--	3.1	0.80	3.0
on (i)	Schwalbe	Durano	2015	TT	Med	Rose.de	--	25	26.0	245	251	24.7	21.0	18.8	18.0	--	--	--	80	10	15.0	4.0	--	--	3.6	0.60	3.0
on (i)	Schwalbe	Lugano II	2020	TT	Low	Rose.de	46.9	25	25.9	280	265	24.2	21.1	19.2	18.0	69	66	72	52	16	11.0	5.2	8.4	3.6	3.4	0.80	2.0
on (i)	Vredestein	Fortezza Senso All Weather	2015	TT	Med	Rose.de	--	25	26.2	240	234	24.6	21.8	19.7	18.0	--	--	--	65	12	13.2	4.6	--	--	3.2	0.55	2.0
on (i)	Continental	Gatorskin	2015	TT	High	Rose.de	--	25	26.0	240	255	26.2	22.0	20.2	19.3	--	--	--	89	19	18.0	7.2	--	--	3.2	0.70	3.0
on (i)	Continental	Gator Hardshell	2019	TT	High	Rose.de	40.0	25	25.7	270	273	27.4	23.1	20.5	19.5	66	63	68	100	26	20.0	8.0	15.0	9.0	3.7	1.00	4.0
on (i)	Schwalbe	Durano DD Addix	2020	TT	Med	Rose.de	42.9	25	25.8	295	302	27.3	23.5	21.0	19.5	70	68	72	59	18	12.0	6.2	9.0	5.8	3.6	1.00	2.0
on (i)	Schwalbe	Durano Plus	2017	TT	Med	--	43.5	25	26.8	380	400	26.4	22.9	20.7	19.7	--	--	--	95	27	15.0	7.6	--	--	4.8	1.50	3.0
on (i)	Michelin	Power All Season	2016	TT	High	--	44.4	25	25.6	270	275	27.8	24.5	22.7	21.3	--	--	--	70	17	14.0	6.0	--	--	3.3	0.85	2.0
on (i)	Schwalbe	Lugano	2015	TT	Low	--	--	25	25.1	280	275	28.4	24.4	22.6	21.9	--	--	--	74	12	14.8	4.4	--	--	3.5	0.65	1.0
on (i)	Maxxis	Re-Fuse	2019	TT	Med	--	43.8	25	25.3	300	296	31.4	27.4	24.6	22.6	66	65	67	84	22	17.0	7.6	13.0	6.4	3.6	1.15	2.0
